demo_2stage/la0_waveform.vcd
#0 $dumpon
$date today $end
$timescale 1 ns $end
$scope module top $end
$var wire 32 0 u_sapphire_soc_min/u_EfxSapphireSoc/system_cores_0_logic_cpu_dBus_cmd_payload_data $end
$var wire 2 1 u_sapphire_soc_min/u_EfxSapphireSoc/system_cores_0_logic_cpu_dBus_cmd_payload_size $end
$var wire 1 2 u_sapphire_soc_min/u_EfxSapphireSoc/system_cores_0_logic_cpu_dBus_cmd_valid $end
$var wire 1 3 u_sapphire_soc_min/u_EfxSapphireSoc/system_cores_0_logic_cpu_dBus_cmd_payload_wr $end
$var wire 32 4 u_sapphire_soc_min/u_EfxSapphireSoc/system_cores_0_logic_cpu_dBus_cmd_payload_address $end
$var wire 32 5 u_sapphire_soc_min/u_EfxSapphireSoc/system_cores_0_dBus_rsp_payload_fragment_data $end
$var wire 1 6 u_sapphire_soc_min/u_EfxSapphireSoc/system_cores_0_dBus_rsp_ready $end
$var wire 1 7 u_sapphire_soc_min/u_EfxSapphireSoc/system_cores_0_logic_cpu_dBus_rsp_error $end
$var wire 1 8 u_sapphire_soc_min/u_EfxSapphireSoc/system_cores_0_dBus_rsp_valid $end
$var wire 1 9 u_sapphire_soc_min/u_EfxSapphireSoc/system_cores_0_dBus_rsp_payload_fragment_opcode $end
$var wire 1 a u_sapphire_soc_min/u_EfxSapphireSoc/system_cores_0_dBus_rsp_payload_last $end
$var wire 1 b u_sapphire_soc_min/u_EfxSapphireSoc/system_cores_0_dBus_rsp_payload_fragment_context $end
$var wire 1 c u_sapphire_soc_min/u_EfxSapphireSoc/system_cores_0_logic_cpu_dBus_rsp_ready $end
$var wire 12 d VAL_HEARTRATE $end
$var wire 1 e io_apbSlave_0_PREADY $end
$var wire 1 f io_apbSlave_0_PSLVERROR $end
$var wire 32 10 io_apbSlave_0_PWDATA $end
$var wire 1 11 io_apbSlave_0_PENABLE $end
$var wire 16 12 io_apbSlave_0_PADDR $end
$var wire 1 13 io_apbSlave_0_PSEL $end
$var wire 32 14 io_apbSlave_0_PRDATA $end
$var wire 1 15 io_apbSlave_0_PWRITE $end
$var wire 20 16 VAL_WATT $end
$var wire 1 17 VAL_STB $end
$var wire 12 18 VAL_SPO2 $end
$var wire 32 19 u_sapphire_soc_min/u_EfxSapphireSoc/system_uart_0_io_logic/io_bus_cmd_payload_fragment_data $end
$var wire 1 1a u_sapphire_soc_min/u_EfxSapphireSoc/system_uart_0_io_logic/io_bus_rsp_valid $end
$var wire 1 1b u_sapphire_soc_min/u_EfxSapphireSoc/system_uart_0_io_logic/io_bus_cmd_fire $end
$var wire 1 1c u_sapphire_soc_min/u_EfxSapphireSoc/system_uart_0_io_logic/io_interrupt $end
$var wire 1 1d u_sapphire_soc_min/u_EfxSapphireSoc/system_uart_0_io_logic/io_bus_cmd_fire_1 $end
$var wire 1 1e u_sapphire_soc_min/u_EfxSapphireSoc/system_uart_0_io_logic/io_bus_cmd_payload_fragment_source $end
$var wire 1 1f u_sapphire_soc_min/u_EfxSapphireSoc/system_uart_0_io_logic/io_bus_rsp_payload_last $end
$var wire 1 20 u_sapphire_soc_min/u_EfxSapphireSoc/system_uart_0_io_logic/io_bus_rsp_payload_fragment_opcode $end
$var wire 1 21 u_sapphire_soc_min/u_EfxSapphireSoc/system_uart_0_io_logic/io_uart_rxd $end
$var wire 1 22 u_sapphire_soc_min/u_EfxSapphireSoc/system_uart_0_io_logic/io_bus_cmd_payload_last $end
$var wire 6 23 u_sapphire_soc_min/u_EfxSapphireSoc/system_uart_0_io_logic/io_bus_cmd_payload_fragment_address $end
$var wire 2 24 u_sapphire_soc_min/u_EfxSapphireSoc/system_uart_0_io_logic/io_bus_cmd_payload_fragment_length $end
$var wire 32 25 u_sapphire_soc_min/u_EfxSapphireSoc/system_uart_0_io_logic/io_bus_rsp_payload_fragment_data $end
$var wire 1 26 u_sapphire_soc_min/u_EfxSapphireSoc/system_uart_0_io_logic/io_bus_rsp_payload_fragment_source $end
$var wire 1 27 u_sapphire_soc_min/u_EfxSapphireSoc/system_uart_0_io_logic/io_bus_rsp_payload_fragment_context $end
$var wire 1 28 u_sapphire_soc_min/u_EfxSapphireSoc/system_uart_0_io_logic/io_bus_rsp_ready $end
$var wire 1 29 u_sapphire_soc_min/u_EfxSapphireSoc/system_uart_0_io_logic/io_uart_txd $end
$var wire 1 2a u_sapphire_soc_min/u_EfxSapphireSoc/system_uart_0_io_logic/io_bus_cmd_payload_fragment_opcode $end
$var wire 1 2b u_sapphire_soc_min/u_EfxSapphireSoc/system_uart_0_io_logic/io_bus_cmd_payload_fragment_context $end
$var wire 1 2c u_sapphire_soc_min/u_EfxSapphireSoc/system_uart_0_io_logic/io_bus_cmd_ready $end
$var wire 1 2d u_sapphire_soc_min/u_EfxSapphireSoc/system_uart_0_io_logic/io_bus_cmd_valid $end
$upscope $end
$enddefinitions $end
#0
$dumpvars
b00000000000000000000000000000000 0
b00 1
02
03
b00000000000000000000000000000000 4
b00000000000000000000000000000000 5
16
07
08
09
1a
0b
0c
b000000000100 d
0e
0f
b00000000000000000000000000000000 10
011
b0000000000000000 12
013
b00000000000000000000000000000011 14
015
b00000000000000000101 16
017
b000000000011 18
b00000000000000000000000000000000 19
01a
01b
01c
01d
01e
11f
020
021
122
b000000 23
b11 24
b00000000000000000000000000000000 25
026
027
128
129
02a
02b
12c
02d
$end
#1
b11111001000000010000001110000000 4
#2
b11111001000000010000001110000100 4
#3
b00000000000000000000000000000000 4
#4
b11111001000000010000001101010100 4
#5
b00000000000000000000000000000000 4
#6
b11 1
13
b11111001000000010000001110011100 4
#7
b00 1
03
#8
b00000000000000000000000000000000 4
#12
b11111001000000010000001101100100 4
#13
b11111001000000010000001110110100 0
b11 1
13
b11111001000000010000001110000000 4
#14
b00000000000000000000000000000000 0
b00 1
03
b11111001000000010000001110000100 4
#15
b00000000000000000000000000000000 4
#16
b11111000000000000001000000000100 4
#17
12
#18
b11 1
02
13
b11111001000000010000001101110000 4
#19
b00 1
03
#20
b00000000000000000000000000000000 4
b0001000000000100 12
#21
b11 1
13
b11111001000000010000001101110000 4
11b
11d
b000100 23
b00 24
12d
#22
b00 1
03
b0000000000000000 12
11a
01b
01d
b00000000100000000000000000000000 25
02d
#23
b00000000000000000000000000000000 4
01a
b000000 23
b11 24
028
#24
b11 1
13
b11111001000000010000001101110000 4
b00000000100000000000000000000000 5
18
1c
b00000000000000000000000000000000 25
128
#25
b00 1
03
08
0c
#26
b00000000000000000000000000000000 4
b00000000000000000000000000000000 5
#27
b11111001000000010000001110000000 4
#28
b11111001000000010000001110000100 4
#29
b00000000000000000000000000000000 4
#30
b11111001000000010000001101010100 4
#31
b00000000000000000000000000000000 4
#32
b11 1
13
b11111001000000010000001110011100 4
#33
b00 1
03
#34
b00000000000000000000000000000000 4
#38
b11111001000000010000001101100100 4
#39
b11111001000000010000001110110100 0
b11 1
13
b11111001000000010000001110000000 4
#40
b00000000000000000000000000000000 0
b00 1
03
b11111001000000010000001110000100 4
#41
b00000000000000000000000000000000 4
#42
b11111000000000000001000000000100 4
#43
12
#44
b11 1
02
13
b11111001000000010000001101110000 4
#45
b00 1
03
#46
b00000000000000000000000000000000 4
b0001000000000100 12
#47
b11 1
13
b11111001000000010000001101110000 4
11b
11d
b000100 23
b00 24
12d
#48
b00 1
03
b0000000000000000 12
11a
01b
01d
b00000000100000000000000000000000 25
02d
#49
b00000000000000000000000000000000 4
01a
b000000 23
b11 24
028
#50
b11 1
13
b11111001000000010000001101110000 4
b00000000100000000000000000000000 5
18
1c
b00000000000000000000000000000000 25
128
#51
b00 1
03
08
0c
#52
b00000000000000000000000000000000 4
b00000000000000000000000000000000 5
#53
b11111001000000010000001110000000 4
#54
b11111001000000010000001110000100 4
#55
b00000000000000000000000000000000 4
#56
b11111001000000010000001101010100 4
#57
b00000000000000000000000000000000 4
#58
b11 1
13
b11111001000000010000001110011100 4
#59
b00 1
03
#60
b00000000000000000000000000000000 4
#64
b11111001000000010000001101100100 4
#65
b11111001000000010000001110110100 0
b11 1
13
b11111001000000010000001110000000 4
#66
b00000000000000000000000000000000 0
b00 1
03
b11111001000000010000001110000100 4
#67
b00000000000000000000000000000000 4
#68
b11111000000000000001000000000100 4
#69
12
#70
b11 1
02
13
b11111001000000010000001101110000 4
#71
b00 1
03
#72
b00000000000000000000000000000000 4
b0001000000000100 12
#73
b11 1
13
b11111001000000010000001101110000 4
11b
11d
b000100 23
b00 24
12d
#74
b00 1
03
b0000000000000000 12
11a
01b
01d
b00000000100000000000000000000000 25
02d
#75
b00000000000000000000000000000000 4
01a
b000000 23
b11 24
028
#76
b11 1
13
b11111001000000010000001101110000 4
b00000000100000000000000000000000 5
18
1c
b00000000000000000000000000000000 25
128
#77
b00 1
03
08
0c
#78
b00000000000000000000000000000000 4
b00000000000000000000000000000000 5
#79
b11111001000000010000001110000000 4
#80
b11111001000000010000001110000100 4
#81
b00000000000000000000000000000000 4
#82
b11111001000000010000001101010100 4
#83
b00000000000000000000000000000000 4
#84
b11 1
13
b11111001000000010000001110011100 4
#85
b00 1
03
#86
b00000000000000000000000000000000 4
#90
b11111001000000010000001101100100 4
#91
b11111001000000010000001110110100 0
b11 1
13
b11111001000000010000001110000000 4
#92
b00000000000000000000000000000000 0
b00 1
03
b11111001000000010000001110000100 4
#93
b00000000000000000000000000000000 4
#94
b11111000000000000001000000000100 4
#95
12
#96
b11 1
02
13
b11111001000000010000001101110000 4
#97
b00 1
03
#98
b00000000000000000000000000000000 4
b0001000000000100 12
#99
b11 1
13
b11111001000000010000001101110000 4
11b
11d
b000100 23
b00 24
12d
#100
b00 1
03
b0000000000000000 12
11a
01b
01d
b00000000100000000000000000000000 25
02d
#101
b00000000000000000000000000000000 4
01a
b000000 23
b11 24
028
#102
b11 1
13
b11111001000000010000001101110000 4
b00000000100000000000000000000000 5
18
1c
b00000000000000000000000000000000 25
128
#103
b00 1
03
08
0c
#104
b00000000000000000000000000000000 4
b00000000000000000000000000000000 5
#105
b11111001000000010000001110000000 4
#106
b11111001000000010000001110000100 4
#107
b00000000000000000000000000000000 4
#108
b11111001000000010000001101010100 4
#109
b00000000000000000000000000000000 4
#110
b11 1
13
b11111001000000010000001110011100 4
#111
b00 1
03
#112
b00000000000000000000000000000000 4
#116
b11111001000000010000001101100100 4
#117
b11111001000000010000001110110100 0
b11 1
13
b11111001000000010000001110000000 4
#118
b00000000000000000000000000000000 0
b00 1
03
b11111001000000010000001110000100 4
#119
b00000000000000000000000000000000 4
#120
b11111000000000000001000000000100 4
#121
12
#122
b11 1
02
13
b11111001000000010000001101110000 4
#123
b00 1
03
#124
b00000000000000000000000000000000 4
b0001000000000100 12
#125
b11 1
13
b11111001000000010000001101110000 4
11b
11d
b000100 23
b00 24
12d
#126
b00 1
03
b0000000000000000 12
11a
01b
01d
b00000000100000000000000000000000 25
02d
#127
b00000000000000000000000000000000 4
01a
b000000 23
b11 24
028
#128
b11 1
13
b11111001000000010000001101110000 4
b00000000100000000000000000000000 5
18
1c
b00000000000000000000000000000000 25
128
#129
b00 1
03
08
0c
#130
b00000000000000000000000000000000 4
b00000000000000000000000000000000 5
#131
b11111001000000010000001110000000 4
#132
b11111001000000010000001110000100 4
#133
b00000000000000000000000000000000 4
#134
b11111001000000010000001101010100 4
#135
b00000000000000000000000000000000 4
#136
b11 1
13
b11111001000000010000001110011100 4
#137
b00 1
03
#138
b00000000000000000000000000000000 4
#142
b11111001000000010000001101100100 4
#143
b11111001000000010000001110110100 0
b11 1
13
b11111001000000010000001110000000 4
#144
b00000000000000000000000000000000 0
b00 1
03
b11111001000000010000001110000100 4
#145
b00000000000000000000000000000000 4
#146
b11111000000000000001000000000100 4
#147
12
#148
b11 1
02
13
b11111001000000010000001101110000 4
#149
b00 1
03
#150
b00000000000000000000000000000000 4
b0001000000000100 12
#151
b11 1
13
b11111001000000010000001101110000 4
11b
11d
b000100 23
b00 24
12d
#152
b00 1
03
b0000000000000000 12
11a
01b
01d
b00000000100000000000000000000000 25
02d
#153
b00000000000000000000000000000000 4
01a
b000000 23
b11 24
028
#154
b11 1
13
b11111001000000010000001101110000 4
b00000000100000000000000000000000 5
18
1c
b00000000000000000000000000000000 25
128
#155
b00 1
03
08
0c
#156
b00000000000000000000000000000000 4
b00000000000000000000000000000000 5
#157
b11111001000000010000001110000000 4
#158
b11111001000000010000001110000100 4
#159
b00000000000000000000000000000000 4
#160
b11111001000000010000001101010100 4
#161
b00000000000000000000000000000000 4
#162
b11 1
13
b11111001000000010000001110011100 4
#163
b00 1
03
#164
b00000000000000000000000000000000 4
#168
b11111001000000010000001101100100 4
#169
b11111001000000010000001110110100 0
b11 1
13
b11111001000000010000001110000000 4
#170
b00000000000000000000000000000000 0
b00 1
03
b11111001000000010000001110000100 4
#171
b00000000000000000000000000000000 4
#172
b11111000000000000001000000000100 4
#173
12
#174
b11 1
02
13
b11111001000000010000001101110000 4
#175
b00 1
03
#176
b00000000000000000000000000000000 4
b0001000000000100 12
#177
b11 1
13
b11111001000000010000001101110000 4
11b
11d
b000100 23
b00 24
12d
#178
b00 1
03
b0000000000000000 12
11a
01b
01d
b00000000100000000000000000000000 25
02d
#179
b00000000000000000000000000000000 4
01a
b000000 23
b11 24
028
#180
b11 1
13
b11111001000000010000001101110000 4
b00000000100000000000000000000000 5
18
1c
b00000000000000000000000000000000 25
128
#181
b00 1
03
08
0c
#182
b00000000000000000000000000000000 4
b00000000000000000000000000000000 5
#183
b11111001000000010000001110000000 4
#184
b11111001000000010000001110000100 4
#185
b00000000000000000000000000000000 4
#186
b11111001000000010000001101010100 4
#187
b00000000000000000000000000000000 4
#188
b11 1
13
b11111001000000010000001110011100 4
#189
b00 1
03
#190
b00000000000000000000000000000000 4
#194
b11111001000000010000001101100100 4
#195
b11111001000000010000001110110100 0
b11 1
13
b11111001000000010000001110000000 4
#196
b00000000000000000000000000000000 0
b00 1
03
b11111001000000010000001110000100 4
#197
b00000000000000000000000000000000 4
#198
b11111000000000000001000000000100 4
#199
12
#200
b11 1
02
13
b11111001000000010000001101110000 4
#201
b00 1
03
#202
b00000000000000000000000000000000 4
b0001000000000100 12
#203
b11 1
13
b11111001000000010000001101110000 4
11b
11d
b000100 23
b00 24
12d
#204
b00 1
03
b0000000000000000 12
11a
01b
01d
b00000000100000000000000000000000 25
02d
#205
b00000000000000000000000000000000 4
01a
b000000 23
b11 24
028
#206
b11 1
13
b11111001000000010000001101110000 4
b00000000100000000000000000000000 5
18
1c
b00000000000000000000000000000000 25
128
#207
b00 1
03
08
0c
#208
b00000000000000000000000000000000 4
b00000000000000000000000000000000 5
#209
b11111001000000010000001110000000 4
#210
b11111001000000010000001110000100 4
#211
b00000000000000000000000000000000 4
#212
b11111001000000010000001101010100 4
#213
b00000000000000000000000000000000 4
#214
b11 1
13
b11111001000000010000001110011100 4
#215
b00 1
03
#216
b00000000000000000000000000000000 4
#220
b11111001000000010000001101100100 4
#221
b11111001000000010000001110110100 0
b11 1
13
b11111001000000010000001110000000 4
#222
b00000000000000000000000000000000 0
b00 1
03
b11111001000000010000001110000100 4
#223
b00000000000000000000000000000000 4
#224
b11111000000000000001000000000100 4
#225
12
#226
b11 1
02
13
b11111001000000010000001101110000 4
#227
b00 1
03
#228
b00000000000000000000000000000000 4
b0001000000000100 12
#229
b11 1
13
b11111001000000010000001101110000 4
11b
11d
b000100 23
b00 24
12d
#230
b00 1
03
b0000000000000000 12
11a
01b
01d
b00000000100000000000000000000000 25
02d
#231
b00000000000000000000000000000000 4
01a
b000000 23
b11 24
028
#232
b11 1
13
b11111001000000010000001101110000 4
b00000000100000000000000000000000 5
18
1c
b00000000000000000000000000000000 25
128
#233
b00 1
03
08
0c
#234
b00000000000000000000000000000000 4
b00000000000000000000000000000000 5
#235
b11111001000000010000001110000000 4
#236
b11111001000000010000001110000100 4
#237
b00000000000000000000000000000000 4
#238
b11111001000000010000001101010100 4
#239
b00000000000000000000000000000000 4
#240
b11 1
13
b11111001000000010000001110011100 4
#241
b00 1
03
#242
b00000000000000000000000000000000 4
#246
b11111001000000010000001101100100 4
#247
b11111001000000010000001110110100 0
b11 1
13
b11111001000000010000001110000000 4
#248
b00000000000000000000000000000000 0
b00 1
03
b11111001000000010000001110000100 4
#249
b00000000000000000000000000000000 4
#250
b11111000000000000001000000000100 4
#251
12
#252
b11 1
02
13
b11111001000000010000001101110000 4
#253
b00 1
03
#254
b00000000000000000000000000000000 4
b0001000000000100 12
#255
b11 1
13
b11111001000000010000001101110000 4
11b
11d
b000100 23
b00 24
12d
#256
b00 1
03
b0000000000000000 12
11a
01b
01d
b00000000100000000000000000000000 25
02d
#257
b00000000000000000000000000000000 4
01a
b000000 23
b11 24
028
#258
b11 1
13
b11111001000000010000001101110000 4
b00000000100000000000000000000000 5
18
1c
b00000000000000000000000000000000 25
128
#259
b00 1
03
08
0c
#260
b00000000000000000000000000000000 4
b00000000000000000000000000000000 5
#261
b11111001000000010000001110000000 4
#262
b11111001000000010000001110000100 4
#263
b00000000000000000000000000000000 4
#264
b11111001000000010000001101010100 4
#265
b00000000000000000000000000000000 4
#266
b11 1
13
b11111001000000010000001110011100 4
#267
b00 1
03
#268
b00000000000000000000000000000000 4
#272
b11111001000000010000001101100100 4
#273
b11111001000000010000001110110100 0
b11 1
13
b11111001000000010000001110000000 4
#274
b00000000000000000000000000000000 0
b00 1
03
b11111001000000010000001110000100 4
#275
b00000000000000000000000000000000 4
#276
b11111000000000000001000000000100 4
#277
12
#278
b11 1
02
13
b11111001000000010000001101110000 4
#279
b00 1
03
#280
b00000000000000000000000000000000 4
b0001000000000100 12
#281
b11 1
13
b11111001000000010000001101110000 4
11b
11d
b000100 23
b00 24
12d
#282
b00 1
03
b0000000000000000 12
11a
01b
01d
b00000000100000000000000000000000 25
02d
#283
b00000000000000000000000000000000 4
01a
b000000 23
b11 24
028
#284
b11 1
13
b11111001000000010000001101110000 4
b00000000100000000000000000000000 5
18
1c
b00000000000000000000000000000000 25
128
#285
b00 1
03
08
0c
#286
b00000000000000000000000000000000 4
b00000000000000000000000000000000 5
#287
b11111001000000010000001110000000 4
#288
b11111001000000010000001110000100 4
#289
b00000000000000000000000000000000 4
#290
b11111001000000010000001101010100 4
#291
b00000000000000000000000000000000 4
#292
b11 1
13
b11111001000000010000001110011100 4
#293
b00 1
03
#294
b00000000000000000000000000000000 4
#298
b11111001000000010000001101100100 4
#299
b11111001000000010000001110110100 0
b11 1
13
b11111001000000010000001110000000 4
#300
b00000000000000000000000000000000 0
b00 1
03
b11111001000000010000001110000100 4
#301
b00000000000000000000000000000000 4
#302
b11111000000000000001000000000100 4
#303
12
#304
b11 1
02
13
b11111001000000010000001101110000 4
#305
b00 1
03
#306
b00000000000000000000000000000000 4
b0001000000000100 12
#307
b11 1
13
b11111001000000010000001101110000 4
11b
11d
b000100 23
b00 24
12d
#308
b00 1
03
b0000000000000000 12
11a
01b
01d
b00000000100000000000000000000000 25
02d
#309
b00000000000000000000000000000000 4
01a
b000000 23
b11 24
028
#310
b11 1
13
b11111001000000010000001101110000 4
b00000000100000000000000000000000 5
18
1c
b00000000000000000000000000000000 25
128
#311
b00 1
03
08
0c
#312
b00000000000000000000000000000000 4
b00000000000000000000000000000000 5
#313
b11111001000000010000001110000000 4
#314
b11111001000000010000001110000100 4
#315
b00000000000000000000000000000000 4
#316
b11111001000000010000001101010100 4
#317
b00000000000000000000000000000000 4
#318
b11 1
13
b11111001000000010000001110011100 4
#319
b00 1
03
#320
b00000000000000000000000000000000 4
#324
b11111001000000010000001101100100 4
#325
b11111001000000010000001110110100 0
b11 1
13
b11111001000000010000001110000000 4
#326
b00000000000000000000000000000000 0
b00 1
03
b11111001000000010000001110000100 4
#327
b00000000000000000000000000000000 4
#328
b11111000000000000001000000000100 4
#329
12
#330
b11 1
02
13
b11111001000000010000001101110000 4
#331
b00 1
03
#332
b00000000000000000000000000000000 4
b0001000000000100 12
#333
b11 1
13
b11111001000000010000001101110000 4
11b
11d
b000100 23
b00 24
12d
#334
b00 1
03
b0000000000000000 12
11a
01b
01d
b00000000100000000000000000000000 25
02d
#335
b00000000000000000000000000000000 4
01a
b000000 23
b11 24
028
#336
b11 1
13
b11111001000000010000001101110000 4
b00000000100000000000000000000000 5
18
1c
b00000000000000000000000000000000 25
128
#337
b00 1
03
08
0c
#338
b00000000000000000000000000000000 4
b00000000000000000000000000000000 5
#339
b11111001000000010000001110000000 4
#340
b11111001000000010000001110000100 4
#341
b00000000000000000000000000000000 4
#342
b11111001000000010000001101010100 4
#343
b00000000000000000000000000000000 4
#344
b11 1
13
b11111001000000010000001110011100 4
#345
b00 1
03
#346
b00000000000000000000000000000000 4
#350
b11111001000000010000001101100100 4
#351
b11111001000000010000001110110100 0
b11 1
13
b11111001000000010000001110000000 4
#352
b00000000000000000000000000000000 0
b00 1
03
b11111001000000010000001110000100 4
#353
b00000000000000000000000000000000 4
#354
b11111000000000000001000000000100 4
#355
12
#356
b11 1
02
13
b11111001000000010000001101110000 4
#357
b00 1
03
#358
b00000000000000000000000000000000 4
b0001000000000100 12
#359
b11 1
13
b11111001000000010000001101110000 4
11b
11d
b000100 23
b00 24
12d
#360
b00 1
03
b0000000000000000 12
11a
01b
01d
b00000000100000000000000000000000 25
02d
#361
b00000000000000000000000000000000 4
01a
b000000 23
b11 24
028
#362
b11 1
13
b11111001000000010000001101110000 4
b00000000100000000000000000000000 5
18
1c
b00000000000000000000000000000000 25
128
#363
b00 1
03
08
0c
#364
b00000000000000000000000000000000 4
b00000000000000000000000000000000 5
#365
b11111001000000010000001110000000 4
#366
b11111001000000010000001110000100 4
#367
b00000000000000000000000000000000 4
#368
b11111001000000010000001101010100 4
#369
b00000000000000000000000000000000 4
#370
b11 1
13
b11111001000000010000001110011100 4
#371
b00 1
03
#372
b00000000000000000000000000000000 4
#376
b11111001000000010000001101100100 4
#377
b11111001000000010000001110110100 0
b11 1
13
b11111001000000010000001110000000 4
#378
b00000000000000000000000000000000 0
b00 1
03
b11111001000000010000001110000100 4
#379
b00000000000000000000000000000000 4
#380
b11111000000000000001000000000100 4
#381
12
#382
b11 1
02
13
b11111001000000010000001101110000 4
#383
b00 1
03
#384
b00000000000000000000000000000000 4
b0001000000000100 12
#385
b11 1
13
b11111001000000010000001101110000 4
11b
11d
b000100 23
b00 24
12d
#386
b00 1
03
b0000000000000000 12
11a
01b
01d
b00000000100000000000000000000000 25
02d
#387
b00000000000000000000000000000000 4
01a
b000000 23
b11 24
028
#388
b11 1
13
b11111001000000010000001101110000 4
b00000000100000000000000000000000 5
18
1c
b00000000000000000000000000000000 25
128
#389
b00 1
03
08
0c
#390
b00000000000000000000000000000000 4
b00000000000000000000000000000000 5
#391
b11111001000000010000001110000000 4
#392
b11111001000000010000001110000100 4
#393
b00000000000000000000000000000000 4
#394
b11111001000000010000001101010100 4
#395
b00000000000000000000000000000000 4
#396
b11 1
13
b11111001000000010000001110011100 4
#397
b00 1
03
#398
b00000000000000000000000000000000 4
#402
b11111001000000010000001101100100 4
#403
b11111001000000010000001110110100 0
b11 1
13
b11111001000000010000001110000000 4
#404
b00000000000000000000000000000000 0
b00 1
03
b11111001000000010000001110000100 4
#405
b00000000000000000000000000000000 4
#406
b11111000000000000001000000000100 4
#407
12
#408
b11 1
02
13
b11111001000000010000001101110000 4
#409
b00 1
03
#410
b00000000000000000000000000000000 4
b0001000000000100 12
#411
b11 1
13
b11111001000000010000001101110000 4
11b
11d
b000100 23
b00 24
12d
#412
b00 1
03
b0000000000000000 12
11a
01b
01d
b00000000100000000000000000000000 25
02d
#413
b00000000000000000000000000000000 4
01a
b000000 23
b11 24
028
#414
b11 1
13
b11111001000000010000001101110000 4
b00000000100000000000000000000000 5
18
1c
b00000000000000000000000000000000 25
128
#415
b00 1
03
08
0c
#416
b00000000000000000000000000000000 4
b00000000000000000000000000000000 5
#417
b11111001000000010000001110000000 4
#418
b11111001000000010000001110000100 4
#419
b00000000000000000000000000000000 4
#420
b11111001000000010000001101010100 4
#421
b00000000000000000000000000000000 4
#422
b11 1
13
b11111001000000010000001110011100 4
#423
b00 1
03
#424
b00000000000000000000000000000000 4
#428
b11111001000000010000001101100100 4
#429
b11111001000000010000001110110100 0
b11 1
13
b11111001000000010000001110000000 4
#430
b00000000000000000000000000000000 0
b00 1
03
b11111001000000010000001110000100 4
#431
b00000000000000000000000000000000 4
#432
b11111000000000000001000000000100 4
#433
12
#434
b11 1
02
13
b11111001000000010000001101110000 4
#435
b00 1
03
#436
b00000000000000000000000000000000 4
b0001000000000100 12
#437
b11 1
13
b11111001000000010000001101110000 4
11b
11d
b000100 23
b00 24
12d
#438
b00 1
03
b0000000000000000 12
11a
01b
01d
b00000000100000000000000000000000 25
02d
#439
b00000000000000000000000000000000 4
01a
b000000 23
b11 24
028
#440
b11 1
13
b11111001000000010000001101110000 4
b00000000100000000000000000000000 5
18
1c
b00000000000000000000000000000000 25
128
#441
b00 1
03
08
0c
#442
b00000000000000000000000000000000 4
b00000000000000000000000000000000 5
#443
b11111001000000010000001110000000 4
#444
b11111001000000010000001110000100 4
#445
b00000000000000000000000000000000 4
#446
b11111001000000010000001101010100 4
#447
b00000000000000000000000000000000 4
#448
b11 1
13
b11111001000000010000001110011100 4
#449
b00 1
03
#450
b00000000000000000000000000000000 4
#454
b11111001000000010000001101100100 4
#455
b11111001000000010000001110110100 0
b11 1
13
b11111001000000010000001110000000 4
#456
b00000000000000000000000000000000 0
b00 1
03
b11111001000000010000001110000100 4
#457
b00000000000000000000000000000000 4
#458
b11111000000000000001000000000100 4
#459
12
#460
b11 1
02
13
b11111001000000010000001101110000 4
#461
b00 1
03
#462
b00000000000000000000000000000000 4
b0001000000000100 12
#463
b11 1
13
b11111001000000010000001101110000 4
11b
11d
b000100 23
b00 24
12d
#464
b00 1
03
b0000000000000000 12
11a
01b
01d
b00000000100000000000000000000000 25
02d
#465
b00000000000000000000000000000000 4
01a
b000000 23
b11 24
028
#466
b11 1
13
b11111001000000010000001101110000 4
b00000000100000000000000000000000 5
18
1c
b00000000000000000000000000000000 25
128
#467
b00 1
03
08
0c
#468
b00000000000000000000000000000000 4
b00000000000000000000000000000000 5
#469
b11111001000000010000001110000000 4
#470
b11111001000000010000001110000100 4
#471
b00000000000000000000000000000000 4
#472
b11111001000000010000001101010100 4
#473
b00000000000000000000000000000000 4
#474
b11 1
13
b11111001000000010000001110011100 4
#475
b00 1
03
#476
b00000000000000000000000000000000 4
#480
b11111001000000010000001101100100 4
#481
b11111001000000010000001110110100 0
b11 1
13
b11111001000000010000001110000000 4
#482
b00000000000000000000000000000000 0
b00 1
03
b11111001000000010000001110000100 4
#483
b00000000000000000000000000000000 4
#484
b11111000000000000001000000000100 4
#485
12
#486
b11 1
02
13
b11111001000000010000001101110000 4
#487
b00 1
03
#488
b00000000000000000000000000000000 4
b0001000000000100 12
#489
b11 1
13
b11111001000000010000001101110000 4
11b
11d
b000100 23
b00 24
12d
#490
b00 1
03
b0000000000000000 12
11a
01b
01d
b00000000100000000000000000000000 25
02d
#491
b00000000000000000000000000000000 4
01a
b000000 23
b11 24
028
#492
b11 1
13
b11111001000000010000001101110000 4
b00000000100000000000000000000000 5
18
1c
b00000000000000000000000000000000 25
128
#493
b00 1
03
08
0c
#494
b00000000000000000000000000000000 4
b00000000000000000000000000000000 5
#495
b11111001000000010000001110000000 4
#496
b11111001000000010000001110000100 4
#497
b00000000000000000000000000000000 4
#498
b11111001000000010000001101010100 4
#499
b00000000000000000000000000000000 4
#500
b11 1
13
b11111001000000010000001110011100 4
#501
b00 1
03
#502
b00000000000000000000000000000000 4
#506
b11111001000000010000001101100100 4
#507
b11111001000000010000001110110100 0
b11 1
13
b11111001000000010000001110000000 4
#508
b00000000000000000000000000000000 0
b00 1
03
b11111001000000010000001110000100 4
#509
b00000000000000000000000000000000 4
#510
b11111000000000000001000000000100 4
#511
b00000000000000000000000000000000 0
b00 1
12
03
b11111000000000000001000000000100 4
b00000000000000000000000000000000 5
16
07
08
09
1a
0b
0c
b000000000100 d
0e
0f
b00000000000000000000000000000000 10
011
b0000000000000000 12
013
b00000000000000000000000000000011 14
015
b00000000000000000101 16
017
b000000000011 18
b00000000000000000000000000000000 19
01a
01b
01c
01d
01e
11f
020
021
122
b000000 23
b11 24
b00000000000000000000000000000000 25
026
027
128
129
02a
02b
12c
02d
